{
  "OAUTH_FILE": "/home/petr/oauth.txt",
  "KEY_FILE": "/home/petr/key.json",
  "CLOUD_ID": "b1g11muvkkdcs0hi6v95",
  "FOLDER_ID": "b1g996dv0p4dmo4aeo1u",
  "ZONE": "ru-central1-a",
  "k8s_version": "1.22",
  "sa_id": "ajegp487qums6gs1u2lk",
  "sa_name": "petr",
  "app_dns_name": "app",
  "dns_domain": "akimov.space",
  "zone_id": "dns6bnf8lr6972tjennl"
}
